module5_cmu_top/greenv_final_v3.vcd
$date
	Sat Mar  7 14:46:27 2026
$end
$version
	Icarus Verilog
$end
$timescale
	1ps
$end
$scope module tb_cmu_top $end
$var wire 1 ! w_change_ack $end
$var wire 1 " w_change_req $end
$var wire 3 # w_current_sel [2:0] $end
$var wire 3 $ w_freq_sel [2:0] $end
$var wire 2 % w_lookahead [1:0] $end
$var wire 2 & w_monitor_cmd [1:0] $end
$var wire 1 ' w_spike $end
$var wire 3 ( volt_ctrl [2:0] $end
$var wire 1 ) clk_out $end
$var parameter 32 * INST_BRANCH $end
$var parameter 32 + INST_FP $end
$var parameter 32 , INST_IMATH $end
$var parameter 32 - INST_LOAD $end
$var parameter 32 . INST_MADD $end
$var parameter 32 / INST_MATH $end
$var parameter 32 0 INST_NOP $end
$var parameter 32 1 INST_STORE $end
$var reg 1 2 clk_in $end
$var reg 3 3 freq_at_spike [2:0] $end
$var reg 3 4 freq_before [2:0] $end
$var reg 7 5 ibuf_occupancy [6:0] $end
$var reg 1 6 inst_valid $end
$var reg 1 7 rst_n $end
$var integer 32 8 fail_count [31:0] $end
$var integer 32 9 pass_count [31:0] $end
$scope module dut $end
$var wire 1 2 clk_in $end
$var wire 7 : ibuf_occupancy [6:0] $end
$var wire 1 6 inst_valid $end
$var wire 1 7 rst_n $end
$var wire 3 ; volt_ctrl [2:0] $end
$var wire 1 < spike_detected $end
$var wire 1 = monitor_valid $end
$var wire 2 > monitor_cmd [1:0] $end
$var wire 2 ? lookahead_cmd [1:0] $end
$var wire 3 @ freq_sel [2:0] $end
$var wire 1 ) clk_out $end
$var wire 1 A change_req $end
$var wire 1 B change_ack $end
$var reg 3 C current_sel [2:0] $end
$scope module controller_inst $end
$var wire 1 2 clk $end
$var wire 3 D current_sel [2:0] $end
$var wire 1 7 rst_n $end
$var wire 3 E volt_ctrl [2:0] $end
$var wire 1 < spike_detected $end
$var wire 1 = scale_valid $end
$var wire 2 F scale_cmd [1:0] $end
$var wire 2 G lookahead_cmd [1:0] $end
$var wire 1 B change_ack $end
$var parameter 2 H S_COOL $end
$var parameter 2 I S_IDLE $end
$var parameter 2 J S_STEP $end
$var reg 1 A change_req $end
$var reg 5 K count [4:0] $end
$var reg 3 L freq_sel [2:0] $end
$var reg 2 M state [1:0] $end
$var reg 3 N target [2:0] $end
$upscope $end
$scope module divider_inst $end
$var wire 1 A change_req $end
$var wire 1 2 clk_in $end
$var wire 3 O freq_sel [2:0] $end
$var wire 1 7 rst_n $end
$var wire 1 ) clk_out $end
$var reg 6 P active_div [5:0] $end
$var reg 1 B change_ack $end
$var reg 1 Q clk_reg $end
$var reg 3 R current_sel [2:0] $end
$var reg 6 S half_count [5:0] $end
$var reg 6 T half_target [5:0] $end
$var reg 6 U pending_div [5:0] $end
$var reg 1 V switch_pending $end
$scope function get_div_ratio $end
$upscope $end
$scope function get_sel $end
$upscope $end
$upscope $end
$scope module lookahead_inst $end
$var wire 1 2 clk $end
$var wire 1 6 inst_valid $end
$var wire 1 7 rst_n $end
$var wire 8 W slot_is_mem [7:0] $end
$var wire 8 X slot_is_madd [7:0] $end
$var wire 8 Y slot_is_fp [7:0] $end
$var wire 8 Z slot_is_compute [7:0] $end
$var wire 8 [ slot_is_branch [7:0] $end
$var parameter 2 \ CMD_DOWN $end
$var parameter 2 ] CMD_HOLD $end
$var parameter 2 ^ CMD_IDLE $end
$var parameter 2 _ CMD_UP $end
$var parameter 7 ` OP_BRANCH $end
$var parameter 7 a OP_FP_LOAD $end
$var parameter 7 b OP_FP_R $end
$var parameter 7 c OP_INT_I $end
$var parameter 7 d OP_INT_R $end
$var parameter 7 e OP_LOAD $end
$var parameter 7 f OP_MADD $end
$var parameter 7 g OP_STORE $end
$var reg 4 h cnt_branch [3:0] $end
$var reg 4 i cnt_compute [3:0] $end
$var reg 4 j cnt_fp [3:0] $end
$var reg 4 k cnt_madd [3:0] $end
$var reg 4 l cnt_mem [3:0] $end
$var reg 2 m comb_cmd [1:0] $end
$var reg 1 n comb_spike $end
$var reg 2 o lookahead_cmd [1:0] $end
$var reg 1 < spike_detected $end
$scope begin pattern_detect[0] $end
$var parameter 2 p i $end
$upscope $end
$scope begin pattern_detect[1] $end
$var parameter 2 q i $end
$upscope $end
$scope begin pattern_detect[2] $end
$var parameter 3 r i $end
$upscope $end
$scope begin pattern_detect[3] $end
$var parameter 3 s i $end
$upscope $end
$scope begin pattern_detect[4] $end
$var parameter 4 t i $end
$upscope $end
$scope begin pattern_detect[5] $end
$var parameter 4 u i $end
$upscope $end
$scope begin pattern_detect[6] $end
$var parameter 4 v i $end
$upscope $end
$scope begin pattern_detect[7] $end
$var parameter 4 w i $end
$upscope $end
$scope begin $ivl_for_loop7 $end
$var integer 32 x j [31:0] $end
$upscope $end
$upscope $end
$scope module monitor_inst $end
$var wire 1 2 clk $end
$var wire 7 y occupancy [6:0] $end
$var wire 1 7 rst_n $end
$var parameter 2 z CMD_DOWN $end
$var parameter 2 { CMD_HOLD $end
$var parameter 2 | CMD_IDLE $end
$var parameter 2 } CMD_UP $end
$var parameter 32 ~ HYSTERESIS_CYCLES $end
$var parameter 2 !" S_DOWN $end
$var parameter 2 "" S_HOLD $end
$var parameter 2 #" S_IDLE $end
$var parameter 2 $" S_UP $end
$var parameter 7 %" THR_DOWN $end
$var parameter 7 &" THR_IDLE $end
$var parameter 7 '" THR_UP $end
$var reg 4 (" hyst_count [3:0] $end
$var reg 2 )" pending_state [1:0] $end
$var reg 2 *" scale_cmd [1:0] $end
$var reg 1 = scale_valid $end
$var reg 2 +" state [1:0] $end
$var reg 2 ," suggested_state [1:0] $end
$upscope $end
$upscope $end
$scope begin $ivl_for_loop2 $end
$var integer 32 -" k [31:0] $end
$upscope $end
$scope begin $ivl_for_loop3 $end
$var integer 32 ." ii [31:0] $end
$upscope $end
$scope begin $ivl_for_loop4 $end
$var integer 32 /" ii [31:0] $end
$upscope $end
$scope begin $ivl_for_loop5 $end
$var integer 32 0" ii [31:0] $end
$upscope $end
$scope begin $ivl_for_loop6 $end
$var integer 32 1" ii [31:0] $end
$upscope $end
$scope task cpu_cycle $end
$var reg 7 2" occ [6:0] $end
$var reg 32 3" opcode [31:0] $end
$upscope $end
$scope task fail $end
$upscope $end
$scope task fill_window $end
$var reg 32 4" opcode [31:0] $end
$scope begin $ivl_for_loop0 $end
$var integer 32 5" k [31:0] $end
$upscope $end
$upscope $end
$scope task pass $end
$upscope $end
$scope task ramp_occupancy $end
$var reg 7 6" end_occ [6:0] $end
$var reg 7 7" occ [6:0] $end
$var reg 32 8" opcode [31:0] $end
$var reg 7 9" start_occ [6:0] $end
$var integer 32 :" cycles [31:0] $end
$scope begin $ivl_for_loop1 $end
$var integer 32 ;" ii [31:0] $end
$upscope $end
$upscope $end
$scope task send_fp_window $end
$var reg 7 <" occ [6:0] $end
$upscope $end
$scope task send_loop_window $end
$var reg 7 =" occ [6:0] $end
$upscope $end
$scope task send_mem_window $end
$var reg 7 >" occ [6:0] $end
$upscope $end
$upscope $end
$enddefinitions $end
$comment Show the parameter values. $end
$dumpall
b110111 '"
b100 &"
b10011 %"
b11 $"
b0 #"
b10 ""
b1 !"
b1000 ~
b11 }
b0 |
b10 {
b1 z
b111 w
b110 v
b101 u
b100 t
b11 s
b10 r
b1 q
b0 p
b100011 g
b1000011 f
b11 e
b110011 d
b10011 c
b1010011 b
b111 a
b1100011 `
b11 _
b0 ^
b10 ]
b1 \
b1 J
b0 I
b10 H
b100011 1
b10011 0
b110011 /
b1000011 .
b11 -
b10011 ,
b1010011 +
b1100011 *
$end
#0
$dumpvars
bx >"
bx ="
bx <"
b0 ;"
bx :"
bx 9"
bx 8"
bx 7"
bx 6"
b0 5"
bx 4"
bx 3"
bx 2"
b0 1"
b0 0"
b0 /"
b0 ."
b1000 -"
b0 ,"
b10 +"
b10 *"
b10 )"
b0 ("
b0 y
b1000 x
b10 o
0n
b11 m
b0 l
b0 k
b0 j
b1000 i
b0 h
b0 [
b11111111 Z
b0 Y
b0 X
b0 W
0V
b100 U
b10 T
b0 S
b100 R
0Q
b100 P
b100 O
b100 N
b0 M
b100 L
b0 K
b10 G
b10 F
b100 E
b100 D
b100 C
0B
0A
b100 @
b10 ?
b10 >
0=
0<
b100 ;
b0 :
b0 9
b0 8
07
06
b0 5
bx 4
bx 3
02
0)
b100 (
0'
b10 &
b10 %
b100 $
b100 #
0"
0!
$end
#1000
12
#2000
02
#3000
12
#4000
02
#5000
12
#6000
02
#7000
12
#8000
02
#9000
12
#10000
02
#11000
12
#12000
02
#13000
12
#14000
02
#15000
12
#16000
02
#17000
12
#18000
02
#19000
b1 ("
b0 )"
b1 S
17
12
#20000
02
#21000
1)
b0 S
1Q
b10 ("
12
#22000
02
#23000
b11 ("
b1 S
12
#24000
02
#25000
0)
b0 S
0Q
b100 ("
12
#26000
02
#27000
b101 ("
b1 S
12
#28000
02
#29000
1)
b0 S
1Q
b110 ("
b10 2"
b10011 3"
12
#30000
02
#31000
b111 ("
b1 S
16
b10 5
b10 :
b10 y
b1000 5"
b10011 4"
12
#32000
02
#33000
0)
b0 S
0Q
b11 %
b11 ?
b11 G
b11 o
b0 &
b0 >
b0 F
b0 *"
1=
b0 ("
b0 +"
06
b11 2"
b1 ."
12
#34000
02
#35000
0=
b10 %
b10 ?
b10 G
b10 o
b1 S
16
b11 5
b11 :
b11 y
b1000 5"
12
#36000
02
#37000
1)
b0 S
1Q
b11 %
b11 ?
b11 G
b11 o
06
b100 2"
b10 ."
12
#38000
02
#39000
b10 %
b10 ?
b10 G
b10 o
b101 N
b1 S
16
b100 5
b100 :
b100 y
b1000 5"
12
#40000
02
#41000
0)
b0 S
0Q
b1 M
1"
1A
b101 (
b101 ;
b101 E
b101 $
b101 @
b101 L
b101 O
b11 %
b11 ?
b11 G
b11 o
06
b101 2"
b11 ."
12
#42000
02
#43000
b1 ,"
b10 %
b10 ?
b10 G
b10 o
0"
0A
b1 S
1V
b11 U
16
b101 5
b101 :
b101 y
b1000 5"
12
#44000
02
#45000
1)
b0 S
1Q
b11 %
b11 ?
b11 G
b11 o
b1 ("
b1 )"
06
b110 2"
b100 ."
12
#46000
02
#47000
b10 ("
b10 %
b10 ?
b10 G
b10 o
b1 S
16
b110 5
b110 :
b110 y
b1000 5"
12
#48000
02
#49000
0)
b101 R
1!
1B
0V
b1 T
b11 P
b0 S
0Q
b11 %
b11 ?
b11 G
b11 o
b11 ("
06
b111 2"
b101 ."
12
#50000
02
#51000
1)
b100 ("
b10 %
b10 ?
b10 G
b10 o
b10 M
b10 T
1Q
0!
0B
b101 #
b101 C
b101 D
16
b111 5
b111 :
b111 y
b1000 5"
12
#52000
02
#53000
b1 S
b1 K
b11 %
b11 ?
b11 G
b11 o
b101 ("
06
b1000 2"
b110 ."
12
#54000
02
#55000
0)
b110 ("
b10 %
b10 ?
b10 G
b10 o
b10 K
b1 T
b0 S
0Q
16
b1000 5
b1000 :
b1000 y
b1000 5"
12
#56000
02
#57000
1)
b10 T
1Q
b11 K
b11 %
b11 ?
b11 G
b11 o
b111 ("
06
b10 2"
b111 ."
12
#58000
02
#59000
b0 ,"
b1 &
b1 >
b1 F
b1 *"
1=
b0 ("
b1 +"
b10 %
b10 ?
b10 G
b10 o
b100 K
b1 S
16
b10 5
b10 :
b10 y
b1000 5"
12
#60000
02
#61000
0)
b1 T
b0 S
0Q
b101 K
b11 %
b11 ?
b11 G
b11 o
b1 ("
b0 )"
0=
06
b11 2"
b1000 ."
12
#62000
02
#63000
1)
b10 ("
b10 %
b10 ?
b10 G
b10 o
b110 K
b10 T
1Q
16
b11 5
b11 :
b11 y
b1000 5"
12
#64000
02
#65000
b1 S
b111 K
b11 %
b11 ?
b11 G
b11 o
b11 ("
06
b100 2"
b1001 ."
12
#66000
02
#67000
0)
b100 ("
b10 %
b10 ?
b10 G
b10 o
b1000 K
b1 T
b0 S
0Q
16
b100 5
b100 :
b100 y
b1000 5"
12
#68000
02
#69000
1)
b10 T
1Q
b1001 K
b11 %
b11 ?
b11 G
b11 o
b101 ("
06
b101 2"
b1010 ."
12
#70000
02
#71000
b1 ,"
b110 ("
b10 %
b10 ?
b10 G
b10 o
b1010 K
b1 S
16
b101 5
b101 :
b101 y
b1000 5"
12
#72000
02
#73000
0)
b1 T
b0 S
0Q
b1011 K
b11 %
b11 ?
b11 G
b11 o
b1 )"
b0 ("
06
b110 2"
b1011 ."
12
#74000
02
#75000
1)
b10 %
b10 ?
b10 G
b10 o
b1100 K
b10 T
1Q
16
b110 5
b110 :
b110 y
b1000 5"
12
#76000
02
#77000
b1 S
b1101 K
b11 %
b11 ?
b11 G
b11 o
06
b111 2"
b1100 ."
12
#78000
02
#79000
0)
b10 %
b10 ?
b10 G
b10 o
b1110 K
b1 T
b0 S
0Q
16
b111 5
b111 :
b111 y
b1000 5"
12
#80000
02
#81000
1)
b10 T
1Q
b1111 K
b11 %
b11 ?
b11 G
b11 o
06
b1000 2"
b1101 ."
12
#82000
02
#83000
b10 %
b10 ?
b10 G
b10 o
b10000 K
b1 S
16
b1000 5
b1000 :
b1000 y
b1000 5"
12
#84000
02
#85000
0)
b1 T
b0 S
0Q
b0 M
b0 K
b11 %
b11 ?
b11 G
b11 o
06
b10 2"
b1110 ."
12
#86000
02
#87000
1)
b0 ,"
b10 %
b10 ?
b10 G
b10 o
b110 N
b10 T
1Q
16
b10 5
b10 :
b10 y
b1000 5"
12
#88000
02
#89000
b1 S
b1 M
1"
1A
b110 (
b110 ;
b110 E
b110 $
b110 @
b110 L
b110 O
b11 %
b11 ?
b11 G
b11 o
b1 ("
b0 )"
06
b11 2"
b1111 ."
12
#90000
02
#91000
0)
b10 ("
b10 %
b10 ?
b10 G
b10 o
0"
0A
b1 T
b0 S
0Q
1V
b10 U
16
b11 5
b11 :
b11 y
b1000 5"
12
#92000
02
#93000
1)
b10 T
1Q
b11 %
b11 ?
b11 G
b11 o
b11 ("
06
b100 2"
b10000 ."
12
#94000
02
#95000
b100 ("
b10 %
b10 ?
b10 G
b10 o
b1 S
16
b100 5
b100 :
b100 y
b1000 5"
12
#96000
02
#97000
0)
b110 R
1!
1B
0V
b1 T
b10 P
b0 S
0Q
b11 %
b11 ?
b11 G
b11 o
b101 ("
06
b101 2"
b10001 ."
12
#98000
02
#99000
1)
b1 ,"
b110 ("
b10 %
b10 ?
b10 G
b10 o
b10 M
1Q
0!
0B
b110 #
b110 C
b110 D
16
b101 5
b101 :
b101 y
b1000 5"
12
#100000
02
#101000
0)
0Q
b1 K
b11 %
b11 ?
b11 G
b11 o
b1 )"
b0 ("
06
b110 2"
b10010 ."
12
#102000
02
#103000
1)
b10 %
b10 ?
b10 G
b10 o
b10 K
1Q
16
b110 5
b110 :
b110 y
b1000 5"
12
#104000
02
#105000
0)
0Q
b11 K
b11 %
b11 ?
b11 G
b11 o
06
b111 2"
b10011 ."
12
#106000
02
#107000
1)
b10 %
b10 ?
b10 G
b10 o
b100 K
1Q
16
b111 5
b111 :
b111 y
b1000 5"
12
#108000
02
#109000
0)
0Q
b101 K
b11 %
b11 ?
b11 G
b11 o
06
b1000 2"
b10100 ."
12
#110000
02
#111000
1)
b10 %
b10 ?
b10 G
b10 o
b110 K
1Q
16
b1000 5
b1000 :
b1000 y
b1000 5"
12
#112000
02
#113000
0)
0Q
b111 K
b11 %
b11 ?
b11 G
b11 o
06
b10 2"
b10101 ."
12
#114000
02
#115000
1)
b0 ,"
b10 %
b10 ?
b10 G
b10 o
b1000 K
1Q
16
b10 5
b10 :
b10 y
b1000 5"
12
#116000
02
#117000
0)
0Q
b1001 K
b11 %
b11 ?
b11 G
b11 o
b1 ("
b0 )"
06
b11 2"
b10110 ."
12
#118000
02
#119000
1)
b10 ("
b10 %
b10 ?
b10 G
b10 o
b1010 K
1Q
16
b11 5
b11 :
b11 y
b1000 5"
12
#120000
02
#121000
0)
0Q
b1011 K
b11 %
b11 ?
b11 G
b11 o
b11 ("
06
b100 2"
b10111 ."
12
#122000
02
#123000
1)
b100 ("
b10 %
b10 ?
b10 G
b10 o
b1100 K
1Q
16
b100 5
b100 :
b100 y
b1000 5"
12
#124000
02
#125000
0)
0Q
b1101 K
b11 %
b11 ?
b11 G
b11 o
b101 ("
06
b101 2"
b11000 ."
12
#126000
02
#127000
1)
b1 ,"
b110 ("
b10 %
b10 ?
b10 G
b10 o
b1110 K
1Q
16
b101 5
b101 :
b101 y
b1000 5"
12
#128000
02
#129000
0)
0Q
b1111 K
b11 %
b11 ?
b11 G
b11 o
b1 )"
b0 ("
06
b1100 ="
b110 3
b11001 ."
12
#130000
02
#131000
1)
b10 %
b10 ?
b10 G
b10 o
b10000 K
1Q
16
b1100 5
b1100 :
b1100 y
1n
b1 h
b1000 x
b111 i
b11111110 Z
b1 [
12
#132000
02
#133000
0)
0Q
b0 M
b0 K
1'
1<
b11 %
b11 ?
b11 G
b11 o
06
12
#134000
02
#135000
1)
b10 %
b10 ?
b10 G
b10 o
0'
0<
b111 N
1Q
12
#136000
02
#137000
0)
0Q
b1 M
1"
1A
b111 (
b111 ;
b111 E
b111 $
b111 @
b111 L
b111 O
12
#138000
02
#139000
1)
0"
0A
1Q
1V
b1 U
12
#140000
02
#141000
b111 R
1!
1B
0V
b0 T
b1 P
0Q
12
#142000
0)
02
#143000
b10 M
0!
0B
b111 #
b111 C
b111 D
1)
12
#144000
0)
02
#145000
b1 K
1)
12
#146000
0)
02
#147000
b10 K
1)
12
#148000
0)
02
#149000
b11 K
1)
b1100 2"
b110011 3"
b1100 7"
b10100 :"
b111110 6"
b1100 9"
b110011 8"
12
#150000
0)
02
#151000
b100 K
16
0n
b1000 x
b1000 i
b0 h
b11111111 Z
b0 [
1)
b1000 5"
b110011 4"
12
#152000
0)
02
#153000
b101 K
b11 %
b11 ?
b11 G
b11 o
06
1)
b1110 2"
b1110 7"
b1 ;"
12
#154000
0)
02
#155000
b10 %
b10 ?
b10 G
b10 o
b110 K
16
b1110 5
b1110 :
b1110 y
1)
b1000 5"
12
#156000
0)
02
#157000
b111 K
b11 %
b11 ?
b11 G
b11 o
06
1)
b10001 2"
b10001 7"
b10 ;"
12
#158000
0)
02
#159000
b10 %
b10 ?
b10 G
b10 o
b1000 K
16
b10001 5
b10001 :
b10001 y
1)
b1000 5"
12
#160000
0)
02
#161000
b1001 K
b11 %
b11 ?
b11 G
b11 o
06
1)
b10011 2"
b10011 7"
b11 ;"
12
#162000
0)
02
#163000
b10 %
b10 ?
b10 G
b10 o
b1010 K
16
b10011 5
b10011 :
b10011 y
1)
b1000 5"
12
#164000
0)
02
#165000
b1011 K
b11 %
b11 ?
b11 G
b11 o
06
1)
b10110 2"
b10110 7"
b100 ;"
12
#166000
0)
02
#167000
b10 ,"
b10 %
b10 ?
b10 G
b10 o
b1100 K
16
b10110 5
b10110 :
b10110 y
1)
b1000 5"
12
#168000
0)
02
#169000
b1101 K
b11 %
b11 ?
b11 G
b11 o
b1 ("
b10 )"
06
1)
b11001 2"
b11001 7"
b101 ;"
12
#170000
0)
02
#171000
b10 ("
b10 %
b10 ?
b10 G
b10 o
b1110 K
16
b11001 5
b11001 :
b11001 y
1)
b1000 5"
12
#172000
0)
02
#173000
b1111 K
b11 %
b11 ?
b11 G
b11 o
b11 ("
06
1)
b11011 2"
b11011 7"
b110 ;"
12
#174000
0)
02
#175000
b100 ("
b10 %
b10 ?
b10 G
b10 o
b10000 K
16
b11011 5
b11011 :
b11011 y
1)
b1000 5"
12
#176000
0)
02
#177000
b0 M
b0 K
b11 %
b11 ?
b11 G
b11 o
b101 ("
06
1)
b11110 2"
b11110 7"
b111 ;"
12
#178000
0)
02
#179000
b110 ("
b10 %
b10 ?
b10 G
b10 o
16
b11110 5
b11110 :
b11110 y
1)
b1000 5"
12
#180000
0)
02
#181000
b11 %
b11 ?
b11 G
b11 o
b111 ("
06
1)
b100001 2"
b100001 7"
b1000 ;"
12
#182000
0)
02
#183000
b10 &
b10 >
b10 F
b10 *"
1=
b0 ("
b10 +"
b10 %
b10 ?
b10 G
b10 o
16
b100001 5
b100001 :
b100001 y
1)
b1000 5"
12
#184000
0)
02
#185000
b11 %
b11 ?
b11 G
b11 o
0=
06
1)
b100011 2"
b100011 7"
b1001 ;"
12
#186000
0)
02
#187000
b10 %
b10 ?
b10 G
b10 o
16
b100011 5
b100011 :
b100011 y
1)
b1000 5"
12
#188000
0)
02
#189000
b11 %
b11 ?
b11 G
b11 o
06
1)
b100110 2"
b100110 7"
b1010 ;"
12
#190000
0)
02
#191000
b10 %
b10 ?
b10 G
b10 o
16
b100110 5
b100110 :
b100110 y
1)
b1000 5"
12
#192000
0)
02
#193000
b11 %
b11 ?
b11 G
b11 o
06
1)
b101000 2"
b101000 7"
b1011 ;"
12
#194000
0)
02
#195000
b10 %
b10 ?
b10 G
b10 o
16
b101000 5
b101000 :
b101000 y
1)
b1000 5"
12
#196000
0)
02
#197000
b11 %
b11 ?
b11 G
b11 o
06
1)
b101011 2"
b101011 7"
b1100 ;"
12
#198000
0)
02
#199000
b10 %
b10 ?
b10 G
b10 o
16
b101011 5
b101011 :
b101011 y
1)
b1000 5"
12
#200000
0)
02
#201000
b11 %
b11 ?
b11 G
b11 o
06
1)
b101110 2"
b101110 7"
b1101 ;"
12
#202000
0)
02
#203000
b10 %
b10 ?
b10 G
b10 o
16
b101110 5
b101110 :
b101110 y
1)
b1000 5"
12
#204000
0)
02
#205000
b11 %
b11 ?
b11 G
b11 o
06
1)
b110000 2"
b110000 7"
b1110 ;"
12
#206000
0)
02
#207000
b10 %
b10 ?
b10 G
b10 o
16
b110000 5
b110000 :
b110000 y
1)
b1000 5"
12
#208000
0)
02
#209000
b11 %
b11 ?
b11 G
b11 o
06
1)
b110011 2"
b110011 7"
b1111 ;"
12
#210000
0)
02
#211000
b10 %
b10 ?
b10 G
b10 o
16
b110011 5
b110011 :
b110011 y
1)
b1000 5"
12
#212000
0)
02
#213000
b11 %
b11 ?
b11 G
b11 o
06
1)
b110110 2"
b110110 7"
b10000 ;"
12
#214000
0)
02
#215000
b10 %
b10 ?
b10 G
b10 o
16
b110110 5
b110110 :
b110110 y
1)
b1000 5"
12
#216000
0)
02
#217000
b11 %
b11 ?
b11 G
b11 o
06
1)
b111000 2"
b111000 7"
b10001 ;"
12
#218000
0)
02
#219000
b11 ,"
b10 %
b10 ?
b10 G
b10 o
16
b111000 5
b111000 :
b111000 y
1)
b1000 5"
12
#220000
0)
02
#221000
b11 %
b11 ?
b11 G
b11 o
b1 ("
b11 )"
06
1)
b111011 2"
b111011 7"
b10010 ;"
12
#222000
0)
02
#223000
b10 ("
b10 %
b10 ?
b10 G
b10 o
16
b111011 5
b111011 :
b111011 y
1)
b1000 5"
12
#224000
0)
02
#225000
b11 %
b11 ?
b11 G
b11 o
b11 ("
06
1)
b111110 2"
b111110 7"
b10011 ;"
12
#226000
0)
02
#227000
b100 ("
b10 %
b10 ?
b10 G
b10 o
16
b111110 5
b111110 :
b111110 y
1)
b1000 5"
12
#228000
0)
02
#229000
b11 %
b11 ?
b11 G
b11 o
b101 ("
06
b1 ,"
1)
b1010 <"
b1010 5
b1010 :
b1010 y
b111 4
b1 9
b10100 ;"
12
#230000
0)
02
#231000
b1 ("
b1 )"
b10 %
b10 ?
b10 G
b10 o
16
1n
b100 j
b1000 x
b100 i
b11101000 Z
b10111 Y
1)
12
#232000
0)
02
#233000
1'
1<
b11 %
b11 ?
b11 G
b11 o
b10 ("
06
1)
12
#234000
0)
02
#235000
b11 ("
b10 %
b10 ?
b10 G
b10 o
0'
0<
1)
12
#236000
0)
02
#237000
b100 ("
1)
12
#238000
0)
02
#239000
b101 ("
1)
12
#240000
0)
02
#241000
b110 ("
1)
12
#242000
0)
02
#243000
b111 ("
1)
12
#244000
0)
02
#245000
b1 &
b1 >
b1 F
b1 *"
1=
b0 ("
b1 +"
1)
12
#246000
0)
02
#247000
0=
b110 N
1)
12
#248000
0)
02
#249000
b1 M
1"
1A
b110 (
b110 ;
b110 E
b110 $
b110 @
b110 L
b110 O
1)
b111010 2"
b10 9
12
#250000
0)
02
#251000
b11 ,"
0"
0A
1V
b10 U
16
b111010 5
b111010 :
b111010 y
0n
b1000 x
b0 j
b1000 i
b11111111 Z
b0 Y
1)
b1000 5"
12
#252000
0)
02
#253000
b110 R
1!
1B
0V
b1 T
b10 P
b11 %
b11 ?
b11 G
b11 o
b1 ("
b11 )"
06
0)
b111011 2"
b1 /"
12
#254000
02
#255000
1)
b10 ("
b10 %
b10 ?
b10 G
b10 o
b10 M
1Q
0!
0B
b110 #
b110 C
b110 D
16
b111011 5
b111011 :
b111011 y
b1000 5"
12
#256000
02
#257000
0)
0Q
b1 K
b11 %
b11 ?
b11 G
b11 o
b11 ("
06
b111100 2"
b10 /"
12
#258000
02
#259000
1)
b100 ("
b10 %
b10 ?
b10 G
b10 o
b10 K
1Q
16
b111100 5
b111100 :
b111100 y
b1000 5"
12
#260000
02
#261000
0)
0Q
b11 K
b11 %
b11 ?
b11 G
b11 o
b101 ("
06
b111101 2"
b11 /"
12
#262000
02
#263000
1)
b110 ("
b10 %
b10 ?
b10 G
b10 o
b100 K
1Q
16
b111101 5
b111101 :
b111101 y
b1000 5"
12
#264000
02
#265000
0)
0Q
b101 K
b11 %
b11 ?
b11 G
b11 o
b111 ("
06
b111110 2"
b100 /"
12
#266000
02
#267000
1)
b11 &
b11 >
b11 F
b11 *"
1=
b0 ("
b11 +"
b10 %
b10 ?
b10 G
b10 o
b110 K
1Q
16
b111110 5
b111110 :
b111110 y
b1000 5"
12
#268000
02
#269000
0)
0Q
b111 K
b11 %
b11 ?
b11 G
b11 o
0=
06
b111111 2"
b101 /"
12
#270000
02
#271000
1)
b10 %
b10 ?
b10 G
b10 o
b1000 K
1Q
16
b111111 5
b111111 :
b111111 y
b1000 5"
12
#272000
02
#273000
0)
0Q
b1001 K
b11 %
b11 ?
b11 G
b11 o
06
b111010 2"
b110 /"
12
#274000
02
#275000
1)
b10 %
b10 ?
b10 G
b10 o
b1010 K
1Q
16
b111010 5
b111010 :
b111010 y
b1000 5"
12
#276000
02
#277000
0)
0Q
b1011 K
b11 %
b11 ?
b11 G
b11 o
06
b111011 2"
b111 /"
12
#278000
02
#279000
1)
b10 %
b10 ?
b10 G
b10 o
b1100 K
1Q
16
b111011 5
b111011 :
b111011 y
b1000 5"
12
#280000
02
#281000
0)
0Q
b1101 K
b11 %
b11 ?
b11 G
b11 o
06
b111100 2"
b1000 /"
12
#282000
02
#283000
1)
b10 %
b10 ?
b10 G
b10 o
b1110 K
1Q
16
b111100 5
b111100 :
b111100 y
b1000 5"
12
#284000
02
#285000
0)
0Q
b1111 K
b11 %
b11 ?
b11 G
b11 o
06
b111101 2"
b1001 /"
12
#286000
02
#287000
1)
b10 %
b10 ?
b10 G
b10 o
b10000 K
1Q
16
b111101 5
b111101 :
b111101 y
b1000 5"
12
#288000
02
#289000
0)
0Q
b0 M
b0 K
b11 %
b11 ?
b11 G
b11 o
06
b111110 2"
b1010 /"
12
#290000
02
#291000
1)
b10 %
b10 ?
b10 G
b10 o
b111 N
1Q
16
b111110 5
b111110 :
b111110 y
b1000 5"
12
#292000
02
#293000
0)
0Q
b1 M
1"
1A
b111 (
b111 ;
b111 E
b111 $
b111 @
b111 L
b111 O
b11 %
b11 ?
b11 G
b11 o
06
b111111 2"
b1011 /"
12
#294000
02
#295000
1)
b10 %
b10 ?
b10 G
b10 o
0"
0A
1Q
1V
b1 U
16
b111111 5
b111111 :
b111111 y
b1000 5"
12
#296000
02
#297000
b111 R
1!
1B
0V
b0 T
b1 P
0Q
b11 %
b11 ?
b11 G
b11 o
06
b111010 2"
b1100 /"
12
#298000
0)
02
#299000
b10 %
b10 ?
b10 G
b10 o
b10 M
0!
0B
b111 #
b111 C
b111 D
16
b111010 5
b111010 :
b111010 y
1)
b1000 5"
12
#300000
0)
02
#301000
b1 K
b11 %
b11 ?
b11 G
b11 o
06
1)
b111011 2"
b1101 /"
12
#302000
0)
02
#303000
b10 %
b10 ?
b10 G
b10 o
b10 K
16
b111011 5
b111011 :
b111011 y
1)
b1000 5"
12
#304000
0)
02
#305000
b11 K
b11 %
b11 ?
b11 G
b11 o
06
1)
b111100 2"
b1110 /"
12
#306000
0)
02
#307000
b10 %
b10 ?
b10 G
b10 o
b100 K
16
b111100 5
b111100 :
b111100 y
1)
b1000 5"
12
#308000
0)
02
#309000
b101 K
b11 %
b11 ?
b11 G
b11 o
06
1)
b111101 2"
b1111 /"
12
#310000
0)
02
#311000
b10 %
b10 ?
b10 G
b10 o
b110 K
16
b111101 5
b111101 :
b111101 y
1)
b1000 5"
12
#312000
0)
02
#313000
b111 K
b11 %
b11 ?
b11 G
b11 o
06
1)
b111110 2"
b10000 /"
12
#314000
0)
02
#315000
b10 %
b10 ?
b10 G
b10 o
b1000 K
16
b111110 5
b111110 :
b111110 y
1)
b1000 5"
12
#316000
0)
02
#317000
b1001 K
b11 %
b11 ?
b11 G
b11 o
06
1)
b111111 2"
b10001 /"
12
#318000
0)
02
#319000
b10 %
b10 ?
b10 G
b10 o
b1010 K
16
b111111 5
b111111 :
b111111 y
1)
b1000 5"
12
#320000
0)
02
#321000
b1011 K
b11 %
b11 ?
b11 G
b11 o
06
1)
b111010 2"
b10010 /"
12
#322000
0)
02
#323000
b10 %
b10 ?
b10 G
b10 o
b1100 K
16
b111010 5
b111010 :
b111010 y
1)
b1000 5"
12
#324000
0)
02
#325000
b1101 K
b11 %
b11 ?
b11 G
b11 o
06
1)
b111011 2"
b10011 /"
12
#326000
0)
02
#327000
b10 %
b10 ?
b10 G
b10 o
b1110 K
16
b111011 5
b111011 :
b111011 y
1)
b1000 5"
12
#328000
0)
02
